\relax 
\providecommand\hyper@newdestlabel[2]{}
\providecommand\HyperFirstAtBeginDocument{\AtBeginDocument}
\HyperFirstAtBeginDocument{\ifx\hyper@anchor\@undefined
\global\let\oldcontentsline\contentsline
\gdef\contentsline#1#2#3#4{\oldcontentsline{#1}{#2}{#3}}
\global\let\oldnewlabel\newlabel
\gdef\newlabel#1#2{\newlabelxx{#1}#2}
\gdef\newlabelxx#1#2#3#4#5#6{\oldnewlabel{#1}{{#2}{#3}}}
\AtEndDocument{\ifx\hyper@anchor\@undefined
\let\contentsline\oldcontentsline
\let\newlabel\oldnewlabel
\fi}
\fi}
\global\let\hyper@last\relax 
\gdef\HyperFirstAtBeginDocument#1{#1}
\providecommand\HyField@AuxAddToFields[1]{}
\providecommand\HyField@AuxAddToCoFields[2]{}
\bibstyle{unsrtnat}
\citation{Tong2016}
\citation{Wen1990}
\citation{Nardin2023}
\citation{Castin2000}
\citation{NardinFermions}
\bibdata{bibliography}
\bibcite{Tong2016}{{1}{2016}{{Tong}}{{}}}
\bibcite{Wen1990}{{2}{1990}{{Wen}}{{}}}
\bibcite{Nardin2023}{{3}{2023{}}{{Nardin and Carusotto}}{{}}}
\bibcite{Castin2000}{{4}{2000}{{Castin and Herzog}}{{}}}
\bibcite{NardinFermions}{{5}{2023{}}{{Nardin and Carusotto}}{{}}}
\gdef \@abspage@last{2}
