\relax 
\providecommand\hyper@newdestlabel[2]{}
\citation{Kamiyama2022}
\citation{Whitham1999}
\@writefile{toc}{\contentsline {section}{\numberline {2}The Korteweg-de Vries equation}{29}{section.2}\protected@file@percent }
\newlabel{section_classical}{{2}{29}{The Korteweg-de Vries equation}{section.2}{}}
\@writefile{toc}{\contentsline {subsection}{\numberline {2.1}Classical equation of motion}{29}{subsection.2.1}\protected@file@percent }
\newlabel{classical_eom_section}{{2.1}{29}{Classical equation of motion}{subsection.2.1}{}}
\newlabel{equation_motion_classical}{{2.1}{29}{Classical equation of motion}{equation.2.1}{}}
\citation{Whitham1999}
\citation{Whitham1999}
\newlabel{kdv_standard_form}{{2.9}{30}{Classical equation of motion}{equation.2.9}{}}
\newlabel{gamma_prima_definizione}{{2.10}{30}{Classical equation of motion}{equation.2.10}{}}
\@writefile{toc}{\contentsline {subsection}{\numberline {2.2}Soliton solutions}{30}{subsection.2.2}\protected@file@percent }
\newlabel{soliton_solution_section}{{2.2}{30}{Soliton solutions}{subsection.2.2}{}}
\newlabel{classical_charge}{{2.12}{30}{Soliton solutions}{equation.2.12}{}}
\newlabel{classical_momentum}{{2.15}{30}{Soliton solutions}{equation.2.15}{}}
\newlabel{classical_energy}{{2.16}{30}{Soliton solutions}{equation.2.16}{}}
\newlabel{classical_energy_expression}{{2.19}{30}{Soliton solutions}{equation.2.19}{}}
\@writefile{toc}{\contentsline {subsection}{\numberline {2.3}On the integrability of the classical KdV equation}{31}{subsection.2.3}\protected@file@percent }
\newlabel{integrability_kdv_section}{{2.3}{31}{On the integrability of the classical KdV equation}{subsection.2.3}{}}
\@writefile{toc}{\contentsline {subsubsection}{\numberline {2.3.1}Classical Miura's transformation}{31}{subsubsection.2.3.1}\protected@file@percent }
\newlabel{classical_miura_section}{{2.3.1}{31}{Classical Miura's transformation}{subsubsection.2.3.1}{}}
\newlabel{classical_kdv_standard_form}{{2.20}{31}{Classical Miura's transformation}{equation.2.20}{}}
\newlabel{first_substitution}{{2.21}{31}{Classical Miura's transformation}{equation.2.21}{}}
\newlabel{substitution}{{2.24}{31}{Classical Miura's transformation}{equation.2.24}{}}
\newlabel{regrouping_classical}{{2.25}{31}{Classical Miura's transformation}{equation.2.25}{}}
\newlabel{classical_equivalent_miura}{{2.26}{31}{Classical Miura's transformation}{equation.2.26}{}}
\citation{Sasaki1987}
\newlabel{conserved_quantities_classical}{{2.41}{32}{Classical Miura's transformation}{equation.2.41}{}}
\@writefile{toc}{\contentsline {subsubsection}{\numberline {2.3.2}Quantum Miura's transformation}{32}{subsubsection.2.3.2}\protected@file@percent }
\newlabel{quantum_miura_section}{{2.3.2}{32}{Quantum Miura's transformation}{subsubsection.2.3.2}{}}
\newlabel{quantum_eom}{{2.42}{32}{Quantum Miura's transformation}{equation.2.42}{}}
\newlabel{quantum_equivalent_miura}{{2.58}{33}{Quantum Miura's transformation}{equation.2.58}{}}
\newlabel{quantum_current_miura}{{2.59}{33}{Quantum Miura's transformation}{equation.2.59}{}}
\citation{Sasaki1987}
\@writefile{toc}{\contentsline {subsubsection}{\numberline {2.3.3}The inverse scattering method}{34}{subsubsection.2.3.3}\protected@file@percent }
\newlabel{inverse_scattering_section}{{2.3.3}{34}{The inverse scattering method}{subsubsection.2.3.3}{}}
\citation{Gardner1967}
\newlabel{original_kdv_papers}{{2.73}{35}{The inverse scattering method}{equation.2.73}{}}
\newlabel{schro_substitution}{{2.74}{35}{The inverse scattering method}{equation.2.74}{}}
\newlabel{scattering_problem}{{2.75}{35}{The inverse scattering method}{equation.2.75}{}}
\newlabel{equiv_scattering_kdv}{{2.76}{35}{The inverse scattering method}{equation.2.76}{}}
\newlabel{q_condition}{{2.77}{35}{The inverse scattering method}{equation.2.77}{}}
\newlabel{qcpsi}{{2.81}{35}{The inverse scattering method}{equation.2.81}{}}
\newlabel{asymptotic_condition}{{2.82}{35}{The inverse scattering method}{equation.2.82}{}}
\newlabel{new_eigenfunction_problem}{{2.83}{35}{The inverse scattering method}{equation.2.83}{}}
\newlabel{new_kdv_scattering}{{2.84}{35}{The inverse scattering method}{equation.2.84}{}}
\citation{Gelfand1955}
\newlabel{equation_k_kernel}{{2.100}{36}{The inverse scattering method}{equation.2.100}{}}
\newlabel{n_soliton_expression}{{2.109}{37}{The inverse scattering method}{equation.2.109}{}}
\newlabel{schro_point_eigenvalue}{{2.111}{37}{The inverse scattering method}{equation.2.111}{}}
\newlabel{number_soliton_sech_potential}{{2.115}{38}{The inverse scattering method}{equation.2.115}{}}
\@writefile{toc}{\contentsline {subsection}{\numberline {2.4}Integrability and stability to noise}{38}{subsection.2.4}\protected@file@percent }
\newlabel{noise_stability_section}{{2.4}{38}{Integrability and stability to noise}{subsection.2.4}{}}
\newlabel{noisy_superimposition}{{2.116}{38}{Integrability and stability to noise}{equation.2.116}{}}
\newlabel{noisy_function}{{2.117}{38}{Integrability and stability to noise}{equation.2.117}{}}
\providecommand*\caption@xref[2]{\@setref\relax\@undefined{#1}}
\newlabel{noisy_soliton_image}{{2.1a}{39}{The initial condition is taken to be the soliton profile $\phi (x)$ with a superimposed noisy function $n(x)$ \eqref {noisy_function}. \relax }{figure.caption.3}{}}
\newlabel{sub@noisy_soliton_image}{{a}{39}{The initial condition is taken to be the soliton profile $\phi (x)$ with a superimposed noisy function $n(x)$ \eqref {noisy_function}. \relax }{figure.caption.3}{}}
\newlabel{noisy_soliton_small_time_image}{{2.1b}{39}{During the evolution, the superimposed noise starts flowing to the left.\relax }{figure.caption.3}{}}
\newlabel{sub@noisy_soliton_small_time_image}{{b}{39}{During the evolution, the superimposed noise starts flowing to the left.\relax }{figure.caption.3}{}}
\newlabel{noisy_soliton_large_time_image}{{2.1c}{39}{At larger times, the superimposed noise has almost completely flowed to the left, while the soliton keeps propagating to the right.\relax }{figure.caption.3}{}}
\newlabel{sub@noisy_soliton_large_time_image}{{c}{39}{At larger times, the superimposed noise has almost completely flowed to the left, while the soliton keeps propagating to the right.\relax }{figure.caption.3}{}}
\@writefile{lof}{\contentsline {figure}{\numberline {2.1}{\ignorespaces Time evolution of a noisy soliton. Noise parameters: $\Delta = 10$, $\epsilon = 0.1$. Soliton parameter: $\alpha = 1$.\relax }}{39}{figure.caption.3}\protected@file@percent }
\@writefile{toc}{\contentsline {subsection}{\numberline {2.5}Multi-soliton solutions}{39}{subsection.2.5}\protected@file@percent }
\newlabel{multi_soliton_section}{{2.5}{39}{Multi-soliton solutions}{subsection.2.5}{}}
\newlabel{shift_multisoliton}{{2.118}{39}{Multi-soliton solutions}{equation.2.118}{}}
\newlabel{initial_time_two_solitons_image}{{2.2a}{40}{Initial time $t = 0$. The soliton on the left is taller, narrower, and faster than the soliton on the right. Therefore it will eventually take over the smaller, slower soliton.\relax }{figure.caption.4}{}}
\newlabel{sub@initial_time_two_solitons_image}{{a}{40}{Initial time $t = 0$. The soliton on the left is taller, narrower, and faster than the soliton on the right. Therefore it will eventually take over the smaller, slower soliton.\relax }{figure.caption.4}{}}
\newlabel{late_time_two_solitons_image}{{2.2c}{40}{Later time $t = 100$. Numerical evolution (blue line) and free evolution (orange line). The solitons emerged out of the interaction unaltered in shape but with a visible shift with respect to the free evolution.\relax }{figure.caption.4}{}}
\newlabel{sub@late_time_two_solitons_image}{{c}{40}{Later time $t = 100$. Numerical evolution (blue line) and free evolution (orange line). The solitons emerged out of the interaction unaltered in shape but with a visible shift with respect to the free evolution.\relax }{figure.caption.4}{}}
\@writefile{lof}{\contentsline {figure}{\numberline {2.2}{\ignorespaces Interaction between two solitons with widths $\alpha _2 = 1$ and $\alpha _1 = 0.5$.\relax }}{40}{figure.caption.4}\protected@file@percent }
\@writefile{toc}{\contentsline {subsection}{\numberline {2.6}Turning on an external potential}{40}{subsection.2.6}\protected@file@percent }
\newlabel{external_potential_section}{{2.6}{40}{Turning on an external potential}{subsection.2.6}{}}
\newlabel{eom_external_potential}{{2.120}{40}{Turning on an external potential}{equation.2.120}{}}
\@writefile{toc}{\contentsline {subsubsection}{\numberline {2.6.1}Inverted tanh potential}{40}{subsubsection.2.6.1}\protected@file@percent }
\newlabel{initial_condition_inverted_tanh}{{2.124}{40}{Inverted tanh potential}{equation.2.124}{}}
\newlabel{small_time_inverted_tanh_image}{{2.3b}{41}{Density profile (blue line) at intermediate time $t=20$.\relax }{figure.caption.5}{}}
\newlabel{sub@small_time_inverted_tanh_image}{{b}{41}{Density profile (blue line) at intermediate time $t=20$.\relax }{figure.caption.5}{}}
\newlabel{large_time_inverted_tanh_image}{{2.3c}{41}{Density profile (blue line) at a later time $t=90$. At a later time, a train of solitons is formed. This is in agreement with considering the external potential and the KdV equation dynamics as separated and using a $\sech ^2$ profile as the initial condition.\relax }{figure.caption.5}{}}
\newlabel{sub@large_time_inverted_tanh_image}{{c}{41}{Density profile (blue line) at a later time $t=90$. At a later time, a train of solitons is formed. This is in agreement with considering the external potential and the KdV equation dynamics as separated and using a $\sech ^2$ profile as the initial condition.\relax }{figure.caption.5}{}}
\@writefile{lof}{\contentsline {figure}{\numberline {2.3}{\ignorespaces Time evolution for the inverted tanh potential. Parameters: $A=10$, $\Delta _x = 10$, $\Delta _t = 0.5$.\relax }}{41}{figure.caption.5}\protected@file@percent }
\@writefile{toc}{\contentsline {subsubsection}{\numberline {2.6.2}Tanh potential}{41}{subsubsection.2.6.2}\protected@file@percent }
\newlabel{initial_condition_tanh}{{2.128}{41}{Tanh potential}{equation.2.128}{}}
\newlabel{small_time_tanh_potential_image}{{2.4a}{42}{Density profile (blue line) at earlier time $t=0.8$ and rescaled potential $U(x, 0)/1000$ (orange line). The density at this earlier time matches the profile predicted by \eqref {initial_condition_tanh}. The predicted height of the density wave is $\nu /(4\sqrt {\pi }) \approx 0.047$, in accordance with the numerical simulation. The density profile at the earlier time predicted by \eqref {initial_condition_tanh} can be thought of as the initial condition for the subsequent dynamic.\relax }{figure.caption.6}{}}
\newlabel{sub@small_time_tanh_potential_image}{{a}{42}{Density profile (blue line) at earlier time $t=0.8$ and rescaled potential $U(x, 0)/1000$ (orange line). The density at this earlier time matches the profile predicted by \eqref {initial_condition_tanh}. The predicted height of the density wave is $\nu /(4\sqrt {\pi }) \approx 0.047$, in accordance with the numerical simulation. The density profile at the earlier time predicted by \eqref {initial_condition_tanh} can be thought of as the initial condition for the subsequent dynamic.\relax }{figure.caption.6}{}}
\newlabel{large_time_tanh_potential_image}{{2.4c}{42}{Density profile (blue line) at a later time $t=90$. At a later time, a quickly oscillating excitation is formed. This is in agreement with considering the external potential and the KdV equation dynamics as separated and using a $-\sech ^2$ profile as the initial condition.\relax }{figure.caption.6}{}}
\newlabel{sub@large_time_tanh_potential_image}{{c}{42}{Density profile (blue line) at a later time $t=90$. At a later time, a quickly oscillating excitation is formed. This is in agreement with considering the external potential and the KdV equation dynamics as separated and using a $-\sech ^2$ profile as the initial condition.\relax }{figure.caption.6}{}}
\@writefile{lof}{\contentsline {figure}{\numberline {2.4}{\ignorespaces Time evolution for the tanh potential. Parameters: $A=10$, $\Delta _x = 10$, $\Delta _t = 0.5$.\relax }}{42}{figure.caption.6}\protected@file@percent }
\@writefile{toc}{\contentsline {subsubsection}{\numberline {2.6.3}Step potential}{42}{subsubsection.2.6.3}\protected@file@percent }
\citation{Kamiyama2022}
\newlabel{step_intermediate_time_image}{{2.5a}{43}{Density profile (blue line) at earlier time $t=0.8$ and rescaled potential $U(x, 0)/1000$ (orange line). The density at this earlier time matches the profile predicted by \eqref {initial_condition_tanh} on the left side, and the profile predicted by \eqref {initial_condition_inverted_tanh} on the right side of the step. The density profile at the earlier time predicted by \eqref {initial_condition_tanh} and by \eqref {initial_condition_inverted_tanh} can be thought of as the initial conditions for the subsequent dynamic.\relax }{figure.caption.7}{}}
\newlabel{sub@step_intermediate_time_image}{{a}{43}{Density profile (blue line) at earlier time $t=0.8$ and rescaled potential $U(x, 0)/1000$ (orange line). The density at this earlier time matches the profile predicted by \eqref {initial_condition_tanh} on the left side, and the profile predicted by \eqref {initial_condition_inverted_tanh} on the right side of the step. The density profile at the earlier time predicted by \eqref {initial_condition_tanh} and by \eqref {initial_condition_inverted_tanh} can be thought of as the initial conditions for the subsequent dynamic.\relax }{figure.caption.7}{}}
\newlabel{step_later_time_image}{{2.5c}{43}{Density profile (blue line) at later time $t=90$. At a later time, both a train of solitons and a quickly oscillating excitation are formed. This is in agreement with considering the external potential and the KdV equation dynamics as separated and using the $\sech ^2$ profile and $-\sech ^2$ profile as the initial conditions on the two sides of the step.\relax }{figure.caption.7}{}}
\newlabel{sub@step_later_time_image}{{c}{43}{Density profile (blue line) at later time $t=90$. At a later time, both a train of solitons and a quickly oscillating excitation are formed. This is in agreement with considering the external potential and the KdV equation dynamics as separated and using the $\sech ^2$ profile and $-\sech ^2$ profile as the initial conditions on the two sides of the step.\relax }{figure.caption.7}{}}
\@writefile{lof}{\contentsline {figure}{\numberline {2.5}{\ignorespaces Time evolution for the step potential. Parameters: $A=10$, $\Delta _x = 10$, $\Delta _t = 0.5$.\relax }}{43}{figure.caption.7}\protected@file@percent }
\@writefile{toc}{\contentsline {subsection}{\numberline {2.7}Vanishing amplitude wave solutions and higher harmonics generation}{43}{subsection.2.7}\protected@file@percent }
\newlabel{vanishing_amplitude_solutions_section}{{2.7}{43}{Vanishing amplitude wave solutions and higher harmonics generation}{subsection.2.7}{}}
\newlabel{waves_dispersion}{{2.134}{44}{Vanishing amplitude wave solutions and higher harmonics generation}{equation.2.134}{}}
\@writefile{lof}{\contentsline {figure}{\numberline {2.6}{\ignorespaces Evolution of a gaussian packet with an amplitude $A=1\times 10^{-4}$. For a small enough amplitude, we do not observe the production of higher order harmonics, but just the broadening of the packet. Gaussian packet parameters \textup  {\hbox {\mathsurround \z@ \normalfont  (\ignorespaces \ref  {gaussian_packet_parameters}\unskip \@@italiccorr )}}: $\Delta = 100$, $x_0 = 0$, $A=1\times 10^{-4}$, $k_0=0.2$.\relax }}{44}{figure.caption.8}\protected@file@percent }
\newlabel{broadening_classical_packet_image}{{2.6}{44}{Evolution of a gaussian packet with an amplitude $A=1\times 10^{-4}$. For a small enough amplitude, we do not observe the production of higher order harmonics, but just the broadening of the packet. Gaussian packet parameters \eqref {gaussian_packet_parameters}: $\Delta = 100$, $x_0 = 0$, $A=1\times 10^{-4}$, $k_0=0.2$.\relax }{figure.caption.8}{}}
\newlabel{self_interaction_term}{{2.135}{44}{Vanishing amplitude wave solutions and higher harmonics generation}{equation.2.135}{}}
\newlabel{gaussian_packet_parameters}{{2.136}{44}{Vanishing amplitude wave solutions and higher harmonics generation}{equation.2.136}{}}
\newlabel{initial_time_gaussian_packet_image}{{2.7a}{45}{Initial time $t=0$. We take a gaussian packet as the initial condition and study the subsequent evolution. Notice that we set the amplitude to $A = 0.001$.\relax }{figure.caption.9}{}}
\newlabel{sub@initial_time_gaussian_packet_image}{{a}{45}{Initial time $t=0$. We take a gaussian packet as the initial condition and study the subsequent evolution. Notice that we set the amplitude to $A = 0.001$.\relax }{figure.caption.9}{}}
\newlabel{intermediate_time_gaussian_packet_image}{{2.7b}{45}{Intermediate time: $t= 300$. The two gaussian packets corresponding to higher order harmonics with wavevectors $2k_0 = 0.4$ and $3k_0 = 0.6$ are starting to form. This is due to the self-interacting quadratic term \eqref {self_interaction_term}. \relax }{figure.caption.9}{}}
\newlabel{sub@intermediate_time_gaussian_packet_image}{{b}{45}{Intermediate time: $t= 300$. The two gaussian packets corresponding to higher order harmonics with wavevectors $2k_0 = 0.4$ and $3k_0 = 0.6$ are starting to form. This is due to the self-interacting quadratic term \eqref {self_interaction_term}. \relax }{figure.caption.9}{}}
\newlabel{higher_harmonic_figure}{{2.7c}{45}{Later time $t=1000$. The two gaussian packets with wavevectors $2k_0 = 0.4$ and $3k_0=0.6$ become well separated because they propagate with different group velocities.\relax }{figure.caption.9}{}}
\newlabel{sub@higher_harmonic_figure}{{c}{45}{Later time $t=1000$. The two gaussian packets with wavevectors $2k_0 = 0.4$ and $3k_0=0.6$ become well separated because they propagate with different group velocities.\relax }{figure.caption.9}{}}
\@writefile{lof}{\contentsline {figure}{\numberline {2.7}{\ignorespaces Evolution of a gaussian packet with an amplitude $A = 0.001$. Because of the bigger amplitude $A$, the production of higher harmonics is visible. Gaussian packet parameters \textup  {\hbox {\mathsurround \z@ \normalfont  (\ignorespaces \ref  {gaussian_packet_parameters}\unskip \@@italiccorr )}}: $\Delta = 100$, $x_0 = -550$, $A = 0.01$, $k_0=0.2$.\relax }}{45}{figure.caption.9}\protected@file@percent }
\@writefile{toc}{\contentsline {subsection}{\numberline {2.8}Classical scattering on a soliton}{45}{subsection.2.8}\protected@file@percent }
\newlabel{classical_scattering_soliton_section}{{2.8}{45}{Classical scattering on a soliton}{subsection.2.8}{}}
\newlabel{equation_motion_soliton_frame_classical}{{2.138}{45}{Classical scattering on a soliton}{equation.2.138}{}}
\newlabel{magic_property}{{2.139}{45}{Classical scattering on a soliton}{equation.2.139}{}}
\newlabel{classical_scattering_soliton}{{2.141}{45}{Classical scattering on a soliton}{equation.2.141}{}}
\newlabel{classical_scattering_soliton_fourier}{{2.144}{46}{Classical scattering on a soliton}{equation.2.144}{}}
\newlabel{scattering_soliton_initial_image}{{2.8a}{46}{Initial time $t=0$. Gaussian wave packet (orange curve). Gaussian wave packet with a soliton (blue curve). The two curves are shifted for clarity.\relax }{figure.caption.10}{}}
\newlabel{sub@scattering_soliton_initial_image}{{a}{46}{Initial time $t=0$. Gaussian wave packet (orange curve). Gaussian wave packet with a soliton (blue curve). The two curves are shifted for clarity.\relax }{figure.caption.10}{}}
\newlabel{scattering_soliton_later_image}{{2.8b}{46}{The original gaussian packet emerges almost unaltered from the collision with the soliton (blue curve). The second harmonic $k_0=1.6$ is generated. It results shifted backward by the interaction with the soliton (comparing the blue curve with the orange curve).\relax }{figure.caption.10}{}}
\newlabel{sub@scattering_soliton_later_image}{{b}{46}{The original gaussian packet emerges almost unaltered from the collision with the soliton (blue curve). The second harmonic $k_0=1.6$ is generated. It results shifted backward by the interaction with the soliton (comparing the blue curve with the orange curve).\relax }{figure.caption.10}{}}
\@writefile{lof}{\contentsline {figure}{\numberline {2.8}{\ignorespaces Scattering of a gaussian packet into the soliton. Gaussian packet parameters: $\Delta = 50$, $x_0 = 1400$, $A = 0.01$, $k_0=0.8$. Soliton parameter: $\alpha = 1.5$.\relax }}{46}{figure.caption.10}\protected@file@percent }
\@setckpt{sections/classical}{
\setcounter{page}{47}
\setcounter{equation}{144}
\setcounter{enumi}{0}
\setcounter{enumii}{0}
\setcounter{enumiii}{0}
\setcounter{enumiv}{0}
\setcounter{footnote}{1}
\setcounter{mpfootnote}{0}
\setcounter{part}{0}
\setcounter{section}{2}
\setcounter{subsection}{8}
\setcounter{subsubsection}{0}
\setcounter{paragraph}{0}
\setcounter{subparagraph}{0}
\setcounter{figure}{8}
\setcounter{table}{0}
\setcounter{parentequation}{0}
\setcounter{NAT@ctr}{0}
\setcounter{Item}{0}
\setcounter{Hfootnote}{1}
\setcounter{bookmark@seq@number}{28}
\setcounter{float@type}{4}
\setcounter{cp@cntr}{0}
\setcounter{caption@flags}{0}
\setcounter{continuedfloat}{0}
\setcounter{subfigure}{2}
\setcounter{subtable}{0}
\setcounter{section@level}{2}
}
