\relax 
\providecommand\hyper@newdestlabel[2]{}
\citation{Chang2003}
\citation{Nardin2023}
\citation{Nardin2024}
\citation{Pustilnik2015}
\citation{Castin2000}
\citation{NardinFermions}
\@writefile{toc}{\contentsline {section}{\numberline {7}Conclusions}{107}{section.7}\protected@file@percent }
\newlabel{conclusions_section}{{7}{107}{Conclusions}{section.7}{}}
\@setckpt{sections/conclusions}{
\setcounter{page}{108}
\setcounter{equation}{0}
\setcounter{enumi}{0}
\setcounter{enumii}{0}
\setcounter{enumiii}{0}
\setcounter{enumiv}{0}
\setcounter{footnote}{2}
\setcounter{mpfootnote}{0}
\setcounter{part}{0}
\setcounter{section}{7}
\setcounter{subsection}{0}
\setcounter{subsubsection}{0}
\setcounter{paragraph}{0}
\setcounter{subparagraph}{0}
\setcounter{figure}{0}
\setcounter{table}{0}
\setcounter{parentequation}{0}
\setcounter{NAT@ctr}{0}
\setcounter{Item}{0}
\setcounter{Hfootnote}{2}
\setcounter{bookmark@seq@number}{58}
\setcounter{float@type}{4}
\setcounter{cp@cntr}{0}
\setcounter{caption@flags}{0}
\setcounter{continuedfloat}{0}
\setcounter{subfigure}{0}
\setcounter{subtable}{0}
\setcounter{section@level}{1}
}
