\relax 
\providecommand\hyper@newdestlabel[2]{}
\citation{Martin2022}
\citation{NardinFermions}
\@writefile{toc}{\contentsline {section}{\numberline {5}Free fermions regime}{79}{section.5}\protected@file@percent }
\newlabel{fermionic_section}{{5}{79}{Free fermions regime}{section.5}{}}
\@writefile{toc}{\contentsline {subsection}{\numberline {5.1}Refermionization of the qKdV Hamiltonian}{79}{subsection.5.1}\protected@file@percent }
\newlabel{refermionization_qkdv_section}{{5.1}{79}{Refermionization of the qKdV Hamiltonian}{subsection.5.1}{}}
\newlabel{qkdv_hamiltonian_fermionic_section}{{5.1}{79}{Refermionization of the qKdV Hamiltonian}{equation.5.1}{}}
\newlabel{rescaled_field}{{5.4}{79}{Refermionization of the qKdV Hamiltonian}{equation.5.4}{}}
\newlabel{bosonic_qkdv_rescaled}{{5.6}{79}{Refermionization of the qKdV Hamiltonian}{equation.5.6}{}}
\newlabel{refermionized_hamiltonian}{{5.8}{79}{Refermionization of the qKdV Hamiltonian}{equation.5.8}{}}
\citation{Martin2022}
\newlabel{dispersion_refermionized}{{5.11}{80}{Refermionization of the qKdV Hamiltonian}{equation.5.11}{}}
\newlabel{interacting_fermions}{{5.18}{80}{Refermionization of the qKdV Hamiltonian}{equation.5.18}{}}
\citation{NardinFermions}
\citation{NardinFermions}
\newlabel{interaction_potential_fourier}{{5.26}{81}{Refermionization of the qKdV Hamiltonian}{equation.5.26}{}}
\newlabel{interacting_fermions_one_dimension}{{5.29}{81}{Refermionization of the qKdV Hamiltonian}{equation.5.29}{}}
\newlabel{contact_potential_fermions}{{5.30}{81}{Refermionization of the qKdV Hamiltonian}{equation.5.30}{}}
\newlabel{contact_potential_fourier}{{5.31}{81}{Refermionization of the qKdV Hamiltonian}{equation.5.31}{}}
\@writefile{lof}{\contentsline {figure}{\numberline {5.1}{\ignorespaces Correspondence between the partitions of $l=4$ and the particle-hole excitations (taken from \cite  {NardinFermions}).\relax }}{82}{figure.caption.27}\protected@file@percent }
\@writefile{toc}{\contentsline {subsection}{\numberline {5.2}Free fermions limit}{82}{subsection.5.2}\protected@file@percent }
\newlabel{correlators_free_fermions_section}{{5.2}{82}{Free fermions limit}{subsection.5.2}{}}
\newlabel{hamiltonian_a}{{5.33}{82}{Free fermions limit}{equation.5.33}{}}
\newlabel{small_momentum_kdv}{{5.34}{82}{Free fermions limit}{equation.5.34}{}}
\newlabel{free_energy_free_fermions}{{5.40}{83}{Free fermions limit}{equation.5.40}{}}
\newlabel{correlator_momentum_bosonic}{{5.43}{83}{Free fermions limit}{equation.5.43}{}}
\newlabel{total_sum_is_zero}{{5.45}{83}{Free fermions limit}{equation.5.45}{}}
\newlabel{correlator_bosonic_theta}{{5.49}{84}{Free fermions limit}{equation.5.49}{}}
\newlabel{correlator_bosonic_theta_rescaled}{{5.50}{84}{Free fermions limit}{equation.5.50}{}}
\newlabel{correlator_fourier_2}{{5.51}{84}{Free fermions limit}{equation.5.51}{}}
\@writefile{lof}{\contentsline {figure}{\numberline {5.2}{\ignorespaces Correlators in Fourier space for the first four and last four eigenstates in the free fermions regime (black dots). The grey dashed line serves as a guide to the eye. The ground state and most excited state are the eigenstates with numbers $0$ and $1958$. They are the only two to have a flat distribution corresponding to the predicted value of $\nu /L=0.5$ \textup  {\hbox {\mathsurround \z@ \normalfont  (\ignorespaces \ref  {correlator_fourier_2}\unskip \@@italiccorr )}}. Parameters: total momentum $K = 25/R_{cl}$, $m=2$, $N = 10^6$. Notice that the number of partitions of $25$ is $1958$, which corresponds to the dimension of the Hilbert space at fixed momentum $K=25/R_{cl}$.\relax }}{84}{figure.caption.28}\protected@file@percent }
\newlabel{downward_shift_fermions}{{5.69}{86}{Free fermions limit}{equation.5.69}{}}
\newlabel{analytical_charge_fermion}{{5.70}{86}{Free fermions limit}{equation.5.70}{}}
\newlabel{fermion_operator_rescaled_field}{{5.71}{86}{Free fermions limit}{equation.5.71}{}}
\@writefile{toc}{\contentsline {subsection}{\numberline {5.3}Validity of the free fermions regime}{86}{subsection.5.3}\protected@file@percent }
\newlabel{perturbation_elastic_term}{{5.3}{86}{Validity of the free fermions regime}{subsection.5.3}{}}
\newlabel{interaction_energy_free_fermions}{{5.77}{87}{Validity of the free fermions regime}{equation.5.77}{}}
\@setckpt{sections/fermionic}{
\setcounter{page}{88}
\setcounter{equation}{79}
\setcounter{enumi}{0}
\setcounter{enumii}{0}
\setcounter{enumiii}{0}
\setcounter{enumiv}{0}
\setcounter{footnote}{2}
\setcounter{mpfootnote}{0}
\setcounter{part}{0}
\setcounter{section}{5}
\setcounter{subsection}{3}
\setcounter{subsubsection}{0}
\setcounter{paragraph}{0}
\setcounter{subparagraph}{0}
\setcounter{figure}{2}
\setcounter{table}{0}
\setcounter{parentequation}{0}
\setcounter{NAT@ctr}{0}
\setcounter{Item}{0}
\setcounter{Hfootnote}{2}
\setcounter{bookmark@seq@number}{48}
\setcounter{float@type}{4}
\setcounter{cp@cntr}{0}
\setcounter{caption@flags}{0}
\setcounter{continuedfloat}{0}
\setcounter{subfigure}{0}
\setcounter{subtable}{0}
\setcounter{section@level}{2}
}
