\relax 
\providecommand\hyper@newdestlabel[2]{}
\citation{Nardin2020}
\@writefile{toc}{\contentsline {section}{\numberline {1}The fractional quantum Hall effect}{9}{section.1}\protected@file@percent }
\newlabel{section_fqhe}{{1}{9}{The fractional quantum Hall effect}{section.1}{}}
\@writefile{toc}{\contentsline {subsection}{\numberline {1.1}Quantum mechanics with a magnetic field in two dimensions}{9}{subsection.1.1}\protected@file@percent }
\newlabel{section_2d_qm_magnetic_field}{{1.1}{9}{Quantum mechanics with a magnetic field in two dimensions}{subsection.1.1}{}}
\newlabel{hamiltonian_minimal_coupling}{{1.1}{9}{Quantum mechanics with a magnetic field in two dimensions}{equation.1.1}{}}
\newlabel{momenta_commutator}{{1.6}{10}{Quantum mechanics with a magnetic field in two dimensions}{equation.1.6}{}}
\newlabel{harmonic_oscillator_ll}{{1.10}{10}{Quantum mechanics with a magnetic field in two dimensions}{equation.1.10}{}}
\newlabel{pi1}{{1.13}{10}{Quantum mechanics with a magnetic field in two dimensions}{equation.1.13}{}}
\newlabel{pi2}{{1.14}{10}{Quantum mechanics with a magnetic field in two dimensions}{equation.1.14}{}}
\newlabel{pi3}{{1.15}{10}{Quantum mechanics with a magnetic field in two dimensions}{equation.1.15}{}}
\newlabel{a_lowering}{{1.28}{11}{Quantum mechanics with a magnetic field in two dimensions}{equation.1.28}{}}
\citation{Giuliani2005}
\newlabel{angular_momentum_lll}{{1.38}{12}{Quantum mechanics with a magnetic field in two dimensions}{equation.1.38}{}}
\@writefile{toc}{\contentsline {subsection}{\numberline {1.2}Fractional filling means that correlations matter}{12}{subsection.1.2}\protected@file@percent }
\newlabel{fractional_filling_section}{{1.2}{12}{Fractional filling means that correlations matter}{subsection.1.2}{}}
\newlabel{density_droplet}{{1.41}{12}{Fractional filling means that correlations matter}{equation.1.41}{}}
\citation{Laughlin1983}
\newlabel{laughlin_wf}{{1.48}{13}{Fractional filling means that correlations matter}{equation.1.48}{}}
\@writefile{toc}{\contentsline {subsection}{\numberline {1.3}Two particles in a magnetic field}{13}{subsection.1.3}\protected@file@percent }
\newlabel{section_two_particles_in_b}{{1.3}{13}{Two particles in a magnetic field}{subsection.1.3}{}}
\newlabel{matrix_element_landau_mixing}{{1.71}{14}{Two particles in a magnetic field}{equation.1.71}{}}
\citation{Wen2012}
\newlabel{formula_haldane_coefficients}{{1.72}{15}{Two particles in a magnetic field}{equation.1.72}{}}
\@writefile{toc}{\contentsline {subsection}{\numberline {1.4}Many particles in a magnetic field: Haldane pseudopotentials}{15}{subsection.1.4}\protected@file@percent }
\newlabel{many_particle_B_section}{{1.4}{15}{Many particles in a magnetic field: Haldane pseudopotentials}{subsection.1.4}{}}
\citation{Tong2016,Giuliani2005}
\newlabel{additional_momentum}{{1.85}{16}{Many particles in a magnetic field: Haldane pseudopotentials}{equation.1.85}{}}
\newlabel{radius_symmetric_polynomials}{{1.86}{16}{Many particles in a magnetic field: Haldane pseudopotentials}{equation.1.86}{}}
\newlabel{delta_m_momentum}{{1.87}{16}{Many particles in a magnetic field: Haldane pseudopotentials}{equation.1.87}{}}
\@writefile{toc}{\contentsline {subsection}{\numberline {1.5}Turning on a confining potential}{17}{subsection.1.5}\protected@file@percent }
\newlabel{confining_potential_section}{{1.5}{17}{Turning on a confining potential}{subsection.1.5}{}}
\newlabel{angular_velocity}{{1.92}{17}{Turning on a confining potential}{equation.1.92}{}}
\newlabel{velocity_edge}{{1.93}{17}{Turning on a confining potential}{equation.1.93}{}}
\newlabel{symmetric_polynomial_wavefunction}{{1.95}{17}{Turning on a confining potential}{equation.1.95}{}}
\newlabel{symmetric_polynomial_energy}{{1.97}{18}{Turning on a confining potential}{equation.1.97}{}}
\@writefile{toc}{\contentsline {subsection}{\numberline {1.6}Effective theory for the Laughlin wavefunction}{18}{subsection.1.6}\protected@file@percent }
\newlabel{effective_theory_bulk}{{1.6}{18}{Effective theory for the Laughlin wavefunction}{subsection.1.6}{}}
\newlabel{partition_function_A}{{1.99}{18}{Effective theory for the Laughlin wavefunction}{equation.1.99}{}}
\newlabel{action_guess}{{1.100}{18}{Effective theory for the Laughlin wavefunction}{equation.1.100}{}}
\newlabel{coupling_term_action}{{1.101}{18}{Effective theory for the Laughlin wavefunction}{equation.1.101}{}}
\newlabel{chern_simons_action}{{1.102}{18}{Effective theory for the Laughlin wavefunction}{equation.1.102}{}}
\newlabel{gauge_transform_a0}{{1.104}{18}{Effective theory for the Laughlin wavefunction}{equation.1.104}{}}
\citation{Tong2016}
\@writefile{toc}{\contentsline {subsection}{\numberline {1.7}Effective boundary theory for the Chern-Simons action}{19}{subsection.1.7}\protected@file@percent }
\newlabel{effective_theory_edge_section}{{1.7}{19}{Effective boundary theory for the Chern-Simons action}{subsection.1.7}{}}
\newlabel{boundary_condition}{{1.115}{20}{Effective boundary theory for the Chern-Simons action}{equation.1.115}{}}
\newlabel{gauge_condition_boundary}{{1.116}{20}{Effective boundary theory for the Chern-Simons action}{equation.1.116}{}}
\newlabel{original_coordinates}{{1.120}{20}{Effective boundary theory for the Chern-Simons action}{equation.1.120}{}}
\newlabel{chiral_boson_action}{{1.128}{20}{Effective boundary theory for the Chern-Simons action}{equation.1.128}{}}
\newlabel{equation_motion_boson}{{1.129}{21}{Effective boundary theory for the Chern-Simons action}{equation.1.129}{}}
\newlabel{phi_winding_circle}{{1.142}{21}{Effective boundary theory for the Chern-Simons action}{equation.1.142}{}}
\citation{Wen1990}
\newlabel{total_charge_boson}{{1.143}{22}{Effective boundary theory for the Chern-Simons action}{equation.1.143}{}}
\newlabel{rhont_phint}{{1.146}{22}{Effective boundary theory for the Chern-Simons action}{equation.1.146}{}}
\newlabel{hamiltonian_effective_theory}{{1.150}{22}{Effective boundary theory for the Chern-Simons action}{equation.1.150}{}}
\newlabel{rho_n_commutator_effective_theory}{{1.158}{23}{Effective boundary theory for the Chern-Simons action}{equation.1.158}{}}
\newlabel{rho_commutator_effective_theory}{{1.161}{23}{Effective boundary theory for the Chern-Simons action}{equation.1.161}{}}
\newlabel{chiral_luttinger_hamiltonian}{{1.162}{23}{Effective boundary theory for the Chern-Simons action}{equation.1.162}{}}
\newlabel{eigenvectors_chiral_luttinger}{{1.166}{23}{Effective boundary theory for the Chern-Simons action}{equation.1.166}{}}
\newlabel{eigenenergies_chiral_luttinger}{{1.167}{23}{Effective boundary theory for the Chern-Simons action}{equation.1.167}{}}
\newlabel{hacca_vp}{{1.168}{23}{Effective boundary theory for the Chern-Simons action}{equation.1.168}{}}
\newlabel{momentum_operator_effective_theory}{{1.169}{23}{Effective boundary theory for the Chern-Simons action}{equation.1.169}{}}
\newlabel{partition_effective_theory}{{1.170}{23}{Effective boundary theory for the Chern-Simons action}{equation.1.170}{}}
\newlabel{particle_vertex}{{1.171}{24}{Effective boundary theory for the Chern-Simons action}{equation.1.171}{}}
\newlabel{quasiparticle_vertex}{{1.174}{24}{Effective boundary theory for the Chern-Simons action}{equation.1.174}{}}
\newlabel{carry_fractional_charge}{{1.175}{24}{Effective boundary theory for the Chern-Simons action}{equation.1.175}{}}
\newlabel{are_anyons}{{1.176}{24}{Effective boundary theory for the Chern-Simons action}{equation.1.176}{}}
\newlabel{phi_phi_correlator}{{1.180}{24}{Effective boundary theory for the Chern-Simons action}{equation.1.180}{}}
\newlabel{particle_propagator}{{1.183}{24}{Effective boundary theory for the Chern-Simons action}{equation.1.183}{}}
\citation{Stone1990}
\citation{Simon2021}
\citation{Simon2021}
\@writefile{toc}{\contentsline {subsection}{\numberline {1.8}Chiral Luttinger Fock space and the space of symmetric polynomials}{25}{subsection.1.8}\protected@file@percent }
\newlabel{chiral_and_poly}{{1.8}{25}{Chiral Luttinger Fock space and the space of symmetric polynomials}{subsection.1.8}{}}
\citation{Cooper2008}
\citation{Simon2021,Chang2003}
\citation{Imambekov2009}
\citation{Fern2018,Abanov2005,Bettelheim2006,Wiegmann2012}
\citation{Fern2018}
\citation{Nardin2023}
\citation{Nardin2023}
\citation{Nardin2024}
\@writefile{toc}{\contentsline {subsection}{\numberline {1.9}Beyond the chiral Luttinger liquid theory}{26}{subsection.1.9}\protected@file@percent }
\newlabel{beyond_chiral_luttinger_section}{{1.9}{26}{Beyond the chiral Luttinger liquid theory}{subsection.1.9}{}}
\newlabel{non_linear_luttinger_hamiltonian}{{1.191}{26}{Beyond the chiral Luttinger liquid theory}{equation.1.191}{}}
\citation{Nardin2020}
\citation{Avron1995}
\citation{Girvin1986}
\citation{Nardin2023}
\citation{Nardin2020}
\newlabel{commutation_relation_edge_theory}{{1.192}{27}{Beyond the chiral Luttinger liquid theory}{equation.1.192}{}}
\newlabel{quantum_eom_nonlinear}{{1.193}{27}{Beyond the chiral Luttinger liquid theory}{equation.1.193}{}}
\citation{Nardin2023,Nardin2024}
\citation{Nardin2023}
\@setckpt{sections/fqhe}{
\setcounter{page}{29}
\setcounter{equation}{202}
\setcounter{enumi}{0}
\setcounter{enumii}{0}
\setcounter{enumiii}{0}
\setcounter{enumiv}{0}
\setcounter{footnote}{0}
\setcounter{mpfootnote}{0}
\setcounter{part}{0}
\setcounter{section}{1}
\setcounter{subsection}{9}
\setcounter{subsubsection}{0}
\setcounter{paragraph}{0}
\setcounter{subparagraph}{0}
\setcounter{figure}{0}
\setcounter{table}{0}
\setcounter{parentequation}{0}
\setcounter{NAT@ctr}{0}
\setcounter{Item}{0}
\setcounter{Hfootnote}{0}
\setcounter{bookmark@seq@number}{13}
\setcounter{float@type}{4}
\setcounter{cp@cntr}{0}
\setcounter{caption@flags}{0}
\setcounter{continuedfloat}{0}
\setcounter{subfigure}{0}
\setcounter{subtable}{0}
\setcounter{section@level}{2}
}
