\relax 
\providecommand\hyper@newdestlabel[2]{}
\citation{Klitzing1980}
\citation{Tsui1982}
\citation{Laughlin1983}
\citation{dePicciotto1997}
\citation{Bartolomei2020}
\citation{Nakamura2020}
\citation{Kamiyama2022}
\citation{Gemelke2010}
\citation{Lonard2023}
\citation{Roushan2016}
\citation{Clark2020}
\@writefile{toc}{\contentsline {section}{\numberline {0}Introduction}{7}{section.0}\protected@file@percent }
\@writefile{toc}{\contentsline {subsection}{\numberline {0.1}Experimental motivation}{7}{subsection.0.1}\protected@file@percent }
\@writefile{toc}{\contentsline {subsection}{\numberline {0.2}Structure}{8}{subsection.0.2}\protected@file@percent }
\@setckpt{sections/introduction}{
\setcounter{page}{9}
\setcounter{equation}{2}
\setcounter{enumi}{0}
\setcounter{enumii}{0}
\setcounter{enumiii}{0}
\setcounter{enumiv}{0}
\setcounter{footnote}{0}
\setcounter{mpfootnote}{0}
\setcounter{part}{0}
\setcounter{section}{0}
\setcounter{subsection}{2}
\setcounter{subsubsection}{0}
\setcounter{paragraph}{0}
\setcounter{subparagraph}{0}
\setcounter{figure}{0}
\setcounter{table}{0}
\setcounter{parentequation}{0}
\setcounter{NAT@ctr}{0}
\setcounter{Item}{0}
\setcounter{Hfootnote}{0}
\setcounter{bookmark@seq@number}{3}
\setcounter{float@type}{4}
\setcounter{cp@cntr}{0}
\setcounter{caption@flags}{0}
\setcounter{continuedfloat}{0}
\setcounter{subfigure}{0}
\setcounter{subtable}{0}
\setcounter{section@level}{2}
}
