\relax 
\providecommand\hyper@newdestlabel[2]{}
\citation{Giamarchi2003}
\@writefile{toc}{\contentsline {section}{\numberline {3}Introduction to quantum physics in one dimension}{47}{section.3}\protected@file@percent }
\newlabel{bosonization_section}{{3}{47}{Introduction to quantum physics in one dimension}{section.3}{}}
\@writefile{toc}{\contentsline {subsection}{\numberline {3.1}The Tomonaga-Luttinger model}{47}{subsection.3.1}\protected@file@percent }
\newlabel{tomonaga_luttinger_section}{{3.1}{47}{The Tomonaga-Luttinger model}{subsection.3.1}{}}
\newlabel{psi_c_refermionized}{{3.6}{47}{The Tomonaga-Luttinger model}{equation.3.6}{}}
\newlabel{last_line_commutator_densities}{{3.18}{48}{The Tomonaga-Luttinger model}{equation.3.18}{}}
\newlabel{commutation_rhoq_general}{{3.25}{49}{The Tomonaga-Luttinger model}{equation.3.25}{}}
\newlabel{b_operators_tomonaga}{{3.30}{49}{The Tomonaga-Luttinger model}{equation.3.30}{}}
\newlabel{commutator_luttinger_proof}{{3.38}{49}{The Tomonaga-Luttinger model}{equation.3.38}{}}
\citation{Tong2016}
\newlabel{bosonic_hamiltonian_kinetic}{{3.39}{50}{The Tomonaga-Luttinger model}{equation.3.39}{}}
\newlabel{commutator_psi_fermionic}{{3.40}{50}{The Tomonaga-Luttinger model}{equation.3.40}{}}
\newlabel{electron_creator_commutation_relation}{{3.47}{50}{The Tomonaga-Luttinger model}{equation.3.47}{}}
\newlabel{expansion_fermionic_operator}{{3.49}{50}{The Tomonaga-Luttinger model}{equation.3.49}{}}
\newlabel{fermionic_operator_without_klein}{{3.52}{50}{The Tomonaga-Luttinger model}{equation.3.52}{}}
\newlabel{bosonic_hamiltonian_with_klein}{{3.54}{51}{The Tomonaga-Luttinger model}{equation.3.54}{}}
\newlabel{commutator_rho_tomonaga}{{3.60}{51}{The Tomonaga-Luttinger model}{equation.3.60}{}}
\@writefile{toc}{\contentsline {subsection}{\numberline {3.2}Coherent states for the density operator}{51}{subsection.3.2}\protected@file@percent }
\newlabel{coherent_fermion_section}{{3.2}{51}{Coherent states for the density operator}{subsection.3.2}{}}
\newlabel{coherent_average}{{3.61}{51}{Coherent states for the density operator}{equation.3.61}{}}
\newlabel{commutation_relation_d}{{3.62}{52}{Coherent states for the density operator}{equation.3.62}{}}
\newlabel{fermionic_density_delta_L}{{3.65}{52}{Coherent states for the density operator}{equation.3.65}{}}
\@writefile{toc}{\contentsline {subsection}{\numberline {3.3}The $\phi $ and $\theta $ fields}{52}{subsection.3.3}\protected@file@percent }
\newlabel{phi_theta_section}{{3.3}{52}{The $\phi $ and $\theta $ fields}{subsection.3.3}{}}
\newlabel{phi_definition}{{3.66}{52}{The $\phi $ and $\theta $ fields}{equation.3.66}{}}
\newlabel{theta_definition}{{3.67}{52}{The $\phi $ and $\theta $ fields}{equation.3.67}{}}
\citation{Abanov2005}
\newlabel{commutation_phi_theta}{{3.70}{53}{The $\phi $ and $\theta $ fields}{equation.3.70}{}}
\newlabel{commutator_pphi_ptheta}{{3.72}{53}{The $\phi $ and $\theta $ fields}{equation.3.72}{}}
\newlabel{luttinger_hamiltonian_both_rl}{{3.75}{53}{The $\phi $ and $\theta $ fields}{equation.3.75}{}}
\@writefile{toc}{\contentsline {subsection}{\numberline {3.4}Nonlinear dispersion}{53}{subsection.3.4}\protected@file@percent }
\newlabel{nonlinear_dispersion_section}{{3.4}{53}{Nonlinear dispersion}{subsection.3.4}{}}
\citation{Imambekov2012,Pustilnik2015}
\newlabel{quadratic_density}{{3.81}{54}{Nonlinear dispersion}{equation.3.81}{}}
\newlabel{free_fermions_quadratic_rl}{{3.85}{54}{Nonlinear dispersion}{equation.3.85}{}}
\@writefile{toc}{\contentsline {subsection}{\numberline {3.5}Interacting fermions in one dimension}{54}{subsection.3.5}\protected@file@percent }
\newlabel{interacting_fermions_luttinger_parameter}{{3.5}{54}{Interacting fermions in one dimension}{subsection.3.5}{}}
\citation{Haldane1981}
\newlabel{interacting_fermions_rescaled_fields}{{3.92}{55}{Interacting fermions in one dimension}{equation.3.92}{}}
\newlabel{commutation_relation_renormalized_fields}{{3.96}{55}{Interacting fermions in one dimension}{equation.3.96}{}}
\newlabel{tilde_phi_r}{{3.97}{55}{Interacting fermions in one dimension}{equation.3.97}{}}
\newlabel{tilde_phi_l}{{3.98}{55}{Interacting fermions in one dimension}{equation.3.98}{}}
\newlabel{commutation_relation_renormalized_chiral_fields_partial}{{3.99}{55}{Interacting fermions in one dimension}{equation.3.99}{}}
\newlabel{luttinger_part_interacting}{{3.100}{55}{Interacting fermions in one dimension}{equation.3.100}{}}
\newlabel{nl_part_interacting}{{3.101}{55}{Interacting fermions in one dimension}{equation.3.101}{}}
\@writefile{toc}{\contentsline {subsection}{\numberline {3.6}Quantum hydrodynamics}{55}{subsection.3.6}\protected@file@percent }
\newlabel{quantum_hydrodynamics_section}{{3.6}{55}{Quantum hydrodynamics}{subsection.3.6}{}}
\@writefile{toc}{\contentsline {subsubsection}{\numberline {3.6.1}Free fermions with quadratic dispersion}{56}{subsubsection.3.6.1}\protected@file@percent }
\newlabel{qh_free_fermions}{{3.6.1}{56}{Free fermions with quadratic dispersion}{subsubsection.3.6.1}{}}
\newlabel{hydro_rhophi}{{3.109}{56}{Free fermions with quadratic dispersion}{equation.3.109}{}}
\newlabel{hydrop_vtheta}{{3.110}{56}{Free fermions with quadratic dispersion}{equation.3.110}{}}
\newlabel{hamiltonian_qh}{{3.115}{56}{Free fermions with quadratic dispersion}{equation.3.115}{}}
\newlabel{first_eom_qh}{{3.117}{57}{Free fermions with quadratic dispersion}{equation.3.117}{}}
\newlabel{second_eom_qh}{{3.118}{57}{Free fermions with quadratic dispersion}{equation.3.118}{}}
\@writefile{toc}{\contentsline {subsubsection}{\numberline {3.6.2}Interacting fermions with a quadratic dispersion}{57}{subsubsection.3.6.2}\protected@file@percent }
\newlabel{interacting_fermions_quadratic_dispersion}{{3.6.2}{57}{Interacting fermions with a quadratic dispersion}{subsubsection.3.6.2}{}}
\newlabel{commutator_rho_v_interacting}{{3.126}{57}{Interacting fermions with a quadratic dispersion}{equation.3.126}{}}
\newlabel{hamiltonian_qh_interacting}{{3.128}{57}{Interacting fermions with a quadratic dispersion}{equation.3.128}{}}
\citation{Abanov2005,Bettelheim2006}
\newlabel{separation_density}{{3.129}{58}{Interacting fermions with a quadratic dispersion}{equation.3.129}{}}
\newlabel{sigma_r_def}{{3.130}{58}{Interacting fermions with a quadratic dispersion}{equation.3.130}{}}
\newlabel{sigma_r_commutator}{{3.131}{58}{Interacting fermions with a quadratic dispersion}{equation.3.131}{}}
\@writefile{toc}{\contentsline {subsubsection}{\numberline {3.6.3}The Calogero-Sutherland model for fermions}{58}{subsubsection.3.6.3}\protected@file@percent }
\newlabel{calogero_fermions_section}{{3.6.3}{58}{The Calogero-Sutherland model for fermions}{subsubsection.3.6.3}{}}
\newlabel{calogero_fermions}{{3.132}{58}{The Calogero-Sutherland model for fermions}{equation.3.132}{}}
\newlabel{benjamin_ono_energy}{{3.136}{58}{The Calogero-Sutherland model for fermions}{equation.3.136}{}}
\citation{Haldane1981}
\newlabel{bo_equation}{{3.139}{59}{The Calogero-Sutherland model for fermions}{equation.3.139}{}}
\newlabel{bo_soliton}{{3.140}{59}{The Calogero-Sutherland model for fermions}{equation.3.140}{}}
\newlabel{charge_bo_soliton}{{3.142}{59}{The Calogero-Sutherland model for fermions}{equation.3.142}{}}
\@writefile{toc}{\contentsline {subsubsection}{\numberline {3.6.4}The Calogero-Sutherland model for bosons}{59}{subsubsection.3.6.4}\protected@file@percent }
\newlabel{calogero_bosons_section}{{3.6.4}{59}{The Calogero-Sutherland model for bosons}{subsubsection.3.6.4}{}}
\newlabel{k_much_smaller}{{3.159}{60}{The Calogero-Sutherland model for bosons}{equation.3.159}{}}
\newlabel{qkdv_calogero}{{3.165}{61}{The Calogero-Sutherland model for bosons}{equation.3.165}{}}
\@setckpt{sections/one}{
\setcounter{page}{62}
\setcounter{equation}{166}
\setcounter{enumi}{0}
\setcounter{enumii}{0}
\setcounter{enumiii}{0}
\setcounter{enumiv}{0}
\setcounter{footnote}{1}
\setcounter{mpfootnote}{0}
\setcounter{part}{0}
\setcounter{section}{3}
\setcounter{subsection}{6}
\setcounter{subsubsection}{4}
\setcounter{paragraph}{0}
\setcounter{subparagraph}{0}
\setcounter{figure}{0}
\setcounter{table}{0}
\setcounter{parentequation}{0}
\setcounter{NAT@ctr}{0}
\setcounter{Item}{0}
\setcounter{Hfootnote}{1}
\setcounter{bookmark@seq@number}{39}
\setcounter{float@type}{4}
\setcounter{cp@cntr}{0}
\setcounter{caption@flags}{0}
\setcounter{continuedfloat}{0}
\setcounter{subfigure}{0}
\setcounter{subtable}{0}
\setcounter{section@level}{3}
}
