\relax 
\providecommand\hyper@newdestlabel[2]{}
\citation{Nardin2023}
\@writefile{toc}{\contentsline {section}{\numberline {4}New results: correlators, charge and soliton dynamics}{62}{section.4}\protected@file@percent }
\newlabel{results_section}{{4}{62}{New results: correlators, charge and soliton dynamics}{section.4}{}}
\newlabel{qkdv_capitolo_4}{{4.1}{62}{New results: correlators, charge and soliton dynamics}{equation.4.1}{}}
\newlabel{capitolo4_qkdv_fourier}{{4.7}{62}{New results: correlators, charge and soliton dynamics}{equation.4.7}{}}
\citation{Martin2022}
\newlabel{kappa_star}{{4.10}{63}{New results: correlators, charge and soliton dynamics}{equation.4.10}{}}
\@writefile{toc}{\contentsline {subsection}{\numberline {4.1}Low momenta: free fermions}{63}{subsection.4.1}\protected@file@percent }
\newlabel{results_fermions_section}{{4.1}{63}{Low momenta: free fermions}{subsection.4.1}{}}
\newlabel{intro_fermions_dispersion}{{4.13}{63}{Low momenta: free fermions}{equation.4.13}{}}
\@writefile{lof}{\contentsline {figure}{\numberline {4.1}{\ignorespaces Comparison between the energy of the most excited state obtained via ED (black dots) and the quadratic free fermions dispersion \textup  {\hbox {\mathsurround \z@ \normalfont  (\ignorespaces \ref  {intro_fermions_dispersion}\unskip \@@italiccorr )}} predicted by the refermionization technique for $K_* \ll 1$.\relax }}{64}{figure.caption.11}\protected@file@percent }
\newlabel{free_fermions_energy_dispersion_image}{{4.1}{64}{Comparison between the energy of the most excited state obtained via ED (black dots) and the quadratic free fermions dispersion \eqref {intro_fermions_dispersion} predicted by the refermionization technique for $K_* \ll 1$.\relax }{figure.caption.11}{}}
\newlabel{annihilation_density_waves}{{4.17}{64}{Low momenta: free fermions}{equation.4.17}{}}
\newlabel{full_generality_correlator}{{4.19}{64}{Low momenta: free fermions}{equation.4.19}{}}
\newlabel{flat_distribution}{{4.20}{64}{Low momenta: free fermions}{equation.4.20}{}}
\@writefile{lof}{\contentsline {figure}{\numberline {4.2}{\ignorespaces Free fermions regime. Comparison between the correlators in Fourier space obtained by ED (black dots) and the flat correlator \textup  {\hbox {\mathsurround \z@ \normalfont  (\ignorespaces \ref  {flat_distribution}\unskip \@@italiccorr )}} (grey dashed line) predicted by the refermionization technique for $K_* \ll 1$. The correlator gets flatter for smaller values of $K_*$.\relax }}{65}{figure.caption.12}\protected@file@percent }
\newlabel{flat_distribution_image}{{4.2}{65}{Free fermions regime. Comparison between the correlators in Fourier space obtained by ED (black dots) and the flat correlator \eqref {flat_distribution} (grey dashed line) predicted by the refermionization technique for $K_* \ll 1$. The correlator gets flatter for smaller values of $K_*$.\relax }{figure.caption.12}{}}
\newlabel{sinc_correlator}{{4.22}{65}{Low momenta: free fermions}{equation.4.22}{}}
\@writefile{lof}{\contentsline {figure}{\numberline {4.3}{\ignorespaces Free fermions regime. Comparison between the correlators in real space obtained by ED (black solid line, shifted down for clarity) and the sinc correlator \textup  {\hbox {\mathsurround \z@ \normalfont  (\ignorespaces \ref  {sinc_correlator}\unskip \@@italiccorr )}} (grey dashed line) predicted by the refermionization technique for $K_* \ll 1$.\relax }}{65}{figure.caption.13}\protected@file@percent }
\newlabel{sinc_correlator_image}{{4.3}{65}{Free fermions regime. Comparison between the correlators in real space obtained by ED (black solid line, shifted down for clarity) and the sinc correlator \eqref {sinc_correlator} (grey dashed line) predicted by the refermionization technique for $K_* \ll 1$.\relax }{figure.caption.13}{}}
\citation{Pustilnik2015}
\citation{Pustilnik2015}
\@writefile{toc}{\contentsline {subsection}{\numberline {4.2}High momenta: quantum solitons}{66}{subsection.4.2}\protected@file@percent }
\newlabel{soliton_results_section}{{4.2}{66}{High momenta: quantum solitons}{subsection.4.2}{}}
\newlabel{intro_soliton_energy}{{4.25}{66}{High momenta: quantum solitons}{equation.4.25}{}}
\@writefile{lof}{\contentsline {figure}{\numberline {4.4}{\ignorespaces Upper panel: comparison between the energy of the most excited state obtained via ED (black dots) and the classical soliton energy dispersion \textup  {\hbox {\mathsurround \z@ \normalfont  (\ignorespaces \ref  {intro_soliton_energy}\unskip \@@italiccorr )}} (grey dashed line) for $K_* \gtrapprox 1$. Lower panel: the normalized energy difference between the two energies goes to zero in the $K_* \rightarrow \infty $ limit.\relax }}{66}{figure.caption.14}\protected@file@percent }
\newlabel{intro_soliton_energy_image}{{4.4}{66}{Upper panel: comparison between the energy of the most excited state obtained via ED (black dots) and the classical soliton energy dispersion \eqref {intro_soliton_energy} (grey dashed line) for $K_* \gtrapprox 1$. Lower panel: the normalized energy difference between the two energies goes to zero in the $K_* \rightarrow \infty $ limit.\relax }{figure.caption.14}{}}
\newlabel{intro_soliton_profile}{{4.27}{67}{High momenta: quantum solitons}{equation.4.27}{}}
\newlabel{relation_momentum_width}{{4.28}{67}{High momenta: quantum solitons}{equation.4.28}{}}
\newlabel{soliton_momenta_intro}{{4.29}{67}{High momenta: quantum solitons}{equation.4.29}{}}
\newlabel{classical_prediction_2point}{{4.30}{67}{High momenta: quantum solitons}{equation.4.30}{}}
\@writefile{lof}{\contentsline {figure}{\numberline {4.5}{\ignorespaces Classical soliton regime. Comparison between the correlators in Fourier space obtained by ED (black dots) and the classical prediction Eq. \ref  {classical_prediction_2point} (grey dashed line).\relax }}{67}{figure.caption.15}\protected@file@percent }
\newlabel{classical_2point_correlators_image}{{4.5}{67}{Classical soliton regime. Comparison between the correlators in Fourier space obtained by ED (black dots) and the classical prediction Eq. \ref {classical_prediction_2point} (grey dashed line).\relax }{figure.caption.15}{}}
\newlabel{chiral_window}{{4.31}{67}{High momenta: quantum solitons}{equation.4.31}{}}
\newlabel{kappa_star_molto_grande}{{4.33}{68}{High momenta: quantum solitons}{equation.4.33}{}}
\@writefile{lof}{\contentsline {figure}{\numberline {4.6}{\ignorespaces Left image: $3$-point correlator for the most excited state at $K_* = 4.3$ obtained via ED. Right image: classical soliton Fourier components (Eq. \ref  {soliton_momenta_intro}) for comparison.\relax }}{68}{figure.caption.16}\protected@file@percent }
\newlabel{3point_correlator_fourier_image}{{4.6}{68}{Left image: $3$-point correlator for the most excited state at $K_* = 4.3$ obtained via ED. Right image: classical soliton Fourier components (Eq. \ref {soliton_momenta_intro}) for comparison.\relax }{figure.caption.16}{}}
\@writefile{lof}{\contentsline {figure}{\numberline {4.7}{\ignorespaces Left image: $4$-point correlator for the most excited state at $K_* = 4.3$ obtained via ED. Right image: classical soliton Fourier components (Eq. \ref  {soliton_momenta_intro}) for comparison.\relax }}{68}{figure.caption.17}\protected@file@percent }
\newlabel{4point_correlator_fourier_image}{{4.7}{68}{Left image: $4$-point correlator for the most excited state at $K_* = 4.3$ obtained via ED. Right image: classical soliton Fourier components (Eq. \ref {soliton_momenta_intro}) for comparison.\relax }{figure.caption.17}{}}
\newlabel{soliton_n_point_correlator_classical_correspondence}{{4.34}{68}{High momenta: quantum solitons}{equation.4.34}{}}
\citation{Castin2000}
\newlabel{sb_ansatz_intro}{{4.38}{69}{High momenta: quantum solitons}{equation.4.38}{}}
\newlabel{classical_limit_delta}{{4.39}{69}{High momenta: quantum solitons}{equation.4.39}{}}
\newlabel{sb_correlator_formula_real_space}{{4.42}{69}{High momenta: quantum solitons}{equation.4.42}{}}
\newlabel{2point_correlator_sb_ansatz}{{4.43}{69}{High momenta: quantum solitons}{equation.4.43}{}}
\@writefile{lof}{\contentsline {figure}{\numberline {4.8}{\ignorespaces Classical soliton regime. Comparison between the correlators in real space obtained by ED (black solid line) and the classical prediction of the SB ansatz of Eq. \ref  {2point_correlator_sb_ansatz} (grey dashed line).\relax }}{70}{figure.caption.18}\protected@file@percent }
\newlabel{classical_soliton_2point_real_image}{{4.8}{70}{Classical soliton regime. Comparison between the correlators in real space obtained by ED (black solid line) and the classical prediction of the SB ansatz of Eq. \ref {2point_correlator_sb_ansatz} (grey dashed line).\relax }{figure.caption.18}{}}
\newlabel{sce_1}{{4.44}{70}{High momenta: quantum solitons}{equation.4.44}{}}
\newlabel{sce_2}{{4.45}{70}{High momenta: quantum solitons}{equation.4.45}{}}
\@writefile{toc}{\contentsline {subsection}{\numberline {4.3}Charge}{70}{subsection.4.3}\protected@file@percent }
\newlabel{finite_size_effect_momentum}{{4.49}{71}{Charge}{equation.4.49}{}}
\newlabel{q_n_x}{{4.50}{71}{Charge}{equation.4.50}{}}
\newlabel{downward_shift_classical}{{4.51}{71}{Charge}{equation.4.51}{}}
\newlabel{definition_Q_n}{{4.54}{71}{Charge}{equation.4.54}{}}
\@writefile{lof}{\contentsline {figure}{\numberline {4.9}{\ignorespaces Moved charge in the soliton regime $K_* \gg 1$. Charge $Q_n$ as a function of the adimensional momentum and for various numbers $n$ of points in the correlator, obtained by ED (colored crosses). The grey dashed line is the classical soliton charge $Q_c$ \textup  {\hbox {\mathsurround \z@ \normalfont  (\ignorespaces \ref  {classical_charge}\unskip \@@italiccorr )}} which predicts a power law $Q_n \propto K_*^{1/3}$. The right panel image is in log-log scale to evidence the power law behavior. The numerically measured $Q_n$ differs from the predicted classical value $Q_c$ because in our numerical simulation we are considering finite values of $K_* \lessapprox 5$, and the proper classical limit is $K_* \gg 1$.\relax }}{72}{figure.caption.19}\protected@file@percent }
\newlabel{soliton_charge_figure}{{4.9}{72}{Moved charge in the soliton regime $K_* \gg 1$. Charge $Q_n$ as a function of the adimensional momentum and for various numbers $n$ of points in the correlator, obtained by ED (colored crosses). The grey dashed line is the classical soliton charge $Q_c$ \eqref {classical_charge} which predicts a power law $Q_n \propto K_*^{1/3}$. The right panel image is in log-log scale to evidence the power law behavior. The numerically measured $Q_n$ differs from the predicted classical value $Q_c$ because in our numerical simulation we are considering finite values of $K_* \lessapprox 5$, and the proper classical limit is $K_* \gg 1$.\relax }{figure.caption.19}{}}
\newlabel{fermion_regime_indipendent_n}{{4.10a}{72}{Free fermions regime. Charge $Q_n$ as a function of the adimensional momentum and for various numbers $n$ of points in the correlator, obtained by ED (colored crosses). The solid red line is $\sqrt {\nu } = 1/\sqrt {20}$. For $l \lessapprox 15$ finite size effects are visible. The dependence looks a lot smoother than in the classical soliton regime (See Figure \ref {soliton_charge_figure}). This is because the soliton has an exponential decay, while the particle-hole excitation has a $\text {sinc}$ behavior with a polynomial $1/x$ decay.\relax }{figure.caption.20}{}}
\newlabel{sub@fermion_regime_indipendent_n}{{a}{72}{Free fermions regime. Charge $Q_n$ as a function of the adimensional momentum and for various numbers $n$ of points in the correlator, obtained by ED (colored crosses). The solid red line is $\sqrt {\nu } = 1/\sqrt {20}$. For $l \lessapprox 15$ finite size effects are visible. The dependence looks a lot smoother than in the classical soliton regime (See Figure \ref {soliton_charge_figure}). This is because the soliton has an exponential decay, while the particle-hole excitation has a $\text {sinc}$ behavior with a polynomial $1/x$ decay.\relax }{figure.caption.20}{}}
\newlabel{fermion_regime_m_dependence}{{4.10b}{72}{Free fermions regime. Charge $Q_n$ as a function of the filling factor $1/m$. The charge does not depend on $n$ and it is equal to $\sqrt {\nu }=1/\sqrt {m}$.\relax }{figure.caption.20}{}}
\newlabel{sub@fermion_regime_m_dependence}{{b}{72}{Free fermions regime. Charge $Q_n$ as a function of the filling factor $1/m$. The charge does not depend on $n$ and it is equal to $\sqrt {\nu }=1/\sqrt {m}$.\relax }{figure.caption.20}{}}
\@writefile{lof}{\contentsline {figure}{\numberline {4.10}{\ignorespaces Moved charge in the free fermions regime $K_* \ll 1$.\relax }}{72}{figure.caption.20}\protected@file@percent }
\newlabel{figura_grande_carica_fermioni}{{4.10}{72}{Moved charge in the free fermions regime $K_* \ll 1$.\relax }{figure.caption.20}{}}
\@writefile{toc}{\contentsline {subsection}{\numberline {4.4}Dynamics of the soliton coherent state}{72}{subsection.4.4}\protected@file@percent }
\newlabel{dynamic_results_section}{{4.4}{72}{Dynamics of the soliton coherent state}{subsection.4.4}{}}
\@writefile{lof}{\contentsline {figure}{\numberline {4.11}{\ignorespaces Overlap between the soliton coherent state and the exact eigenstates of the Hamiltonian. The soliton coherent state has a non-zero overlap approximately only with the most excited states of the theory. The considered soliton coherent state has a width corresponding to the adimensional momentum of $k=45$, see relation \textup  {\hbox {\mathsurround \z@ \normalfont  (\ignorespaces \ref  {relation_momentum_width}\unskip \@@italiccorr )}}. The finite size correction \textup  {\hbox {\mathsurround \z@ \normalfont  (\ignorespaces \ref  {finite_size_effect_momentum}\unskip \@@italiccorr )}} is visible. Only the first few larger eigenvalues were considered. Courtesy by Alberto Nardin.\relax }}{73}{figure.caption.21}\protected@file@percent }
\newlabel{projection_soliton_gaussian_image.}{{4.11}{73}{Overlap between the soliton coherent state and the exact eigenstates of the Hamiltonian. The soliton coherent state has a non-zero overlap approximately only with the most excited states of the theory. The considered soliton coherent state has a width corresponding to the adimensional momentum of $k=45$, see relation \eqref {relation_momentum_width}. The finite size correction \eqref {finite_size_effect_momentum} is visible. Only the first few larger eigenvalues were considered. Courtesy by Alberto Nardin.\relax }{figure.caption.21}{}}
\newlabel{soliton_upper_branch_image}{{4.11}{73}{Overlap between the soliton coherent state and the exact eigenstates of the Hamiltonian. The soliton coherent state has a non-zero overlap approximately only with the most excited states of the theory. The considered soliton coherent state has a width corresponding to the adimensional momentum of $k=45$, see relation \eqref {relation_momentum_width}. The finite size correction \eqref {finite_size_effect_momentum} is visible. Only the first few larger eigenvalues were considered. Courtesy by Alberto Nardin.\relax }{figure.caption.21}{}}
\newlabel{function_plot_ansatz}{{4.57}{73}{Dynamics of the soliton coherent state}{equation.4.57}{}}
\newlabel{nuovo_function_plot}{{4.58}{74}{Dynamics of the soliton coherent state}{equation.4.58}{}}
\@writefile{lof}{\contentsline {figure}{\numberline {4.12}{\ignorespaces Comparison of the spectral decomposition of the soliton and the gaussian coherent state. The soliton coherent state lives mainly on the upper branch of the spectrum. Both the soliton and the gaussian coherent states have the same width $\alpha $, such that $\alpha ^2m = 2.25$ as in Figure \ref  {2.25_case_broadening_image}.\relax }}{74}{figure.caption.22}\protected@file@percent }
\newlabel{projection_soliton_gaussian_image}{{4.12}{74}{Comparison of the spectral decomposition of the soliton and the gaussian coherent state. The soliton coherent state lives mainly on the upper branch of the spectrum. Both the soliton and the gaussian coherent states have the same width $\alpha $, such that $\alpha ^2m = 2.25$ as in Figure \ref {2.25_case_broadening_image}.\relax }{figure.caption.22}{}}
\newlabel{modulating_function_relation_rho_k}{{4.60}{75}{Dynamics of the soliton coherent state}{equation.4.60}{}}
\@writefile{lof}{\contentsline {figure}{\numberline {4.13}{\ignorespaces Right images: correlators for the time evoluted coherent state $\mathinner {|{\Psi (t)}\rangle }$. Left images: correlators for the classically evoluted coherent state $\mathinner {|{\phi _{v_{sol}t}}\rangle }$ for comparison. Semiclassical parameter: $\alpha ^2m = 1.0$ (higher is more classical). The soliton coherent state broadens in time, diffusing into its Goldstone modes. We see that, compared to the $n=0$ panel, already for $n=1$ the broadening is much more reduced. In the $n=2, n=3$ cases the broadening does not change too much because for a finite $K_*$ we are not fully in the classical soliton limit $K_* \gg 1$: relation \textup  {\hbox {\mathsurround \z@ \normalfont  (\ignorespaces \ref  {sb_correlator_formula_real_space}\unskip \@@italiccorr )}} receives relevant quantum corrections and we cannot check the accuracy of our ansatz.\relax }}{76}{figure.caption.23}\protected@file@percent }
\newlabel{1_case_broadening_image}{{4.13}{76}{Right images: correlators for the time evoluted coherent state $\ket {\Psi (t)}$. Left images: correlators for the classically evoluted coherent state $\ket {\phi _{v_{sol}t}}$ for comparison. Semiclassical parameter: $\alpha ^2m = 1.0$ (higher is more classical). The soliton coherent state broadens in time, diffusing into its Goldstone modes. We see that, compared to the $n=0$ panel, already for $n=1$ the broadening is much more reduced. In the $n=2, n=3$ cases the broadening does not change too much because for a finite $K_*$ we are not fully in the classical soliton limit $K_* \gg 1$: relation \eqref {sb_correlator_formula_real_space} receives relevant quantum corrections and we cannot check the accuracy of our ansatz.\relax }{figure.caption.23}{}}
\@writefile{lof}{\contentsline {figure}{\numberline {4.14}{\ignorespaces Right images: correlators for the time evoluted coherent state $\mathinner {|{\Psi (t)}\rangle }$. Left images: correlators for the classically evoluted coherent state $\mathinner {|{\phi _{vsol}t}\rangle }$ for comparison. Semiclassical parameter: $\alpha ^2m = 2.25$ (higher is more classical). For a higher $K_*$ the formula \textup  {\hbox {\mathsurround \z@ \normalfont  (\ignorespaces \ref  {sb_correlator_formula_real_space}\unskip \@@italiccorr )}} and the ansatz become more accurate and we see that already for $n=1$ there is essentially no broadening in the right panels.\relax }}{77}{figure.caption.24}\protected@file@percent }
\newlabel{2.25_case_broadening_image}{{4.14}{77}{Right images: correlators for the time evoluted coherent state $\ket {\Psi (t)}$. Left images: correlators for the classically evoluted coherent state $\ket {\phi _{vsol}t}$ for comparison. Semiclassical parameter: $\alpha ^2m = 2.25$ (higher is more classical). For a higher $K_*$ the formula \eqref {sb_correlator_formula_real_space} and the ansatz become more accurate and we see that already for $n=1$ there is essentially no broadening in the right panels.\relax }{figure.caption.24}{}}
\@writefile{lof}{\contentsline {figure}{\numberline {4.15}{\ignorespaces Left panel: classical KdV evolution of a gaussian density profile. Right panel: density operator averaged on the gaussian coherent state evoluted in time. In both the classical and quantum cases, the gaussian packet has a width $\alpha $ such that the semiclassical parameter is $\alpha ^2 m = 2.25$ as in Figure \ref  {2.25_case_broadening_image}. Both in the classical and in the quantum evolution the gaussian profile will broaden, in contrast to the soliton.\relax }}{78}{figure.caption.25}\protected@file@percent }
\newlabel{1point_gaussian_image}{{4.15}{78}{Left panel: classical KdV evolution of a gaussian density profile. Right panel: density operator averaged on the gaussian coherent state evoluted in time. In both the classical and quantum cases, the gaussian packet has a width $\alpha $ such that the semiclassical parameter is $\alpha ^2 m = 2.25$ as in Figure \ref {2.25_case_broadening_image}. Both in the classical and in the quantum evolution the gaussian profile will broaden, in contrast to the soliton.\relax }{figure.caption.25}{}}
\@writefile{lof}{\contentsline {figure}{\numberline {4.16}{\ignorespaces Left panel: $2$-point correlator for the gaussian coherent state evoluted in time. Right panel: same plot as in the left panel, with the points $x_{max}(t)$ marked with a red cross for different times. The profile remains broadened also for the $2$-point correlator, in contrast to the soliton coherent state evolution reported in Figure \ref  {2.25_case_broadening_image}. The gaussian coherent state does not diffuse into its Goldstone modes, and the resulting quantum dynamic is completely different compared to the soliton coherent state evolution.\relax }}{78}{figure.caption.26}\protected@file@percent }
\newlabel{2point_gaussian_image}{{4.16}{78}{Left panel: $2$-point correlator for the gaussian coherent state evoluted in time. Right panel: same plot as in the left panel, with the points $x_{max}(t)$ marked with a red cross for different times. The profile remains broadened also for the $2$-point correlator, in contrast to the soliton coherent state evolution reported in Figure \ref {2.25_case_broadening_image}. The gaussian coherent state does not diffuse into its Goldstone modes, and the resulting quantum dynamic is completely different compared to the soliton coherent state evolution.\relax }{figure.caption.26}{}}
\@setckpt{sections/results}{
\setcounter{page}{79}
\setcounter{equation}{60}
\setcounter{enumi}{0}
\setcounter{enumii}{0}
\setcounter{enumiii}{0}
\setcounter{enumiv}{0}
\setcounter{footnote}{2}
\setcounter{mpfootnote}{0}
\setcounter{part}{0}
\setcounter{section}{4}
\setcounter{subsection}{4}
\setcounter{subsubsection}{0}
\setcounter{paragraph}{0}
\setcounter{subparagraph}{0}
\setcounter{figure}{16}
\setcounter{table}{0}
\setcounter{parentequation}{0}
\setcounter{NAT@ctr}{0}
\setcounter{Item}{0}
\setcounter{Hfootnote}{2}
\setcounter{bookmark@seq@number}{44}
\setcounter{float@type}{4}
\setcounter{cp@cntr}{0}
\setcounter{caption@flags}{0}
\setcounter{continuedfloat}{0}
\setcounter{subfigure}{0}
\setcounter{subtable}{0}
\setcounter{section@level}{2}
}
