\relax 
\providecommand\hyper@newdestlabel[2]{}
\citation{Huang2006}
\@writefile{toc}{\contentsline {section}{\numberline {6}Soliton regime}{88}{section.6}\protected@file@percent }
\newlabel{classical_section}{{6}{88}{Soliton regime}{section.6}{}}
\@writefile{toc}{\contentsline {subsection}{\numberline {6.1}Bogoliubov expansion around the soliton}{88}{subsection.6.1}\protected@file@percent }
\newlabel{bogo_section}{{6.1}{88}{Bogoliubov expansion around the soliton}{subsection.6.1}{}}
\newlabel{commutation_delta_sigma}{{6.8}{89}{Bogoliubov expansion around the soliton}{equation.6.8}{}}
\@writefile{toc}{\contentsline {subsection}{\numberline {6.2}Coherent states and correlators}{89}{subsection.6.2}\protected@file@percent }
\newlabel{coherent_states_section}{{6.2}{89}{Coherent states and correlators}{subsection.6.2}{}}
\newlabel{superposition_z_0_z_1}{{6.19}{90}{Coherent states and correlators}{equation.6.19}{}}
\newlabel{great_distance_expansion}{{6.23}{90}{Coherent states and correlators}{equation.6.23}{}}
\newlabel{cos_integral_long}{{6.24}{90}{Coherent states and correlators}{equation.6.24}{}}
\newlabel{sin_integral_long}{{6.25}{90}{Coherent states and correlators}{equation.6.25}{}}
\citation{Wiegmann2012}
\citation{Dvali2015}
\@writefile{toc}{\contentsline {subsection}{\numberline {6.3}Solitons with different widths are orthonormal}{91}{subsection.6.3}\protected@file@percent }
\newlabel{topology_coherent_states_section}{{6.3}{91}{Solitons with different widths are orthonormal}{subsection.6.3}{}}
\newlabel{overlap_widths_charge}{{6.33}{91}{Solitons with different widths are orthonormal}{equation.6.33}{}}
\@writefile{toc}{\contentsline {subsection}{\numberline {6.4}Superposition of coherent states at short distances}{91}{subsection.6.4}\protected@file@percent }
\newlabel{short_distances_section}{{6.4}{91}{Superposition of coherent states at short distances}{subsection.6.4}{}}
\newlabel{delta_almost_orthogonal}{{6.34}{92}{Superposition of coherent states at short distances}{equation.6.34}{}}
\newlabel{m_n_integral}{{6.37}{92}{Superposition of coherent states at short distances}{equation.6.37}{}}
\newlabel{real_part_expansion}{{6.38}{92}{Superposition of coherent states at short distances}{equation.6.38}{}}
\newlabel{imag_part_expansion}{{6.39}{92}{Superposition of coherent states at short distances}{equation.6.39}{}}
\newlabel{exp1_odd}{{6.43}{92}{Superposition of coherent states at short distances}{equation.6.43}{}}
\newlabel{exp2_even}{{6.46}{92}{Superposition of coherent states at short distances}{equation.6.46}{}}
\newlabel{m_2_equals_functional}{{6.49}{93}{Superposition of coherent states at short distances}{equation.6.49}{}}
\newlabel{m_3_equals_functional}{{6.50}{93}{Superposition of coherent states at short distances}{equation.6.50}{}}
\newlabel{m_5_equal_functional}{{6.51}{93}{Superposition of coherent states at short distances}{equation.6.51}{}}
\newlabel{dilatation_form_function}{{6.52}{93}{Superposition of coherent states at short distances}{equation.6.52}{}}
\newlabel{soliton_profile_fourier}{{6.56}{93}{Superposition of coherent states at short distances}{equation.6.56}{}}
\newlabel{expansion_superposition}{{6.75}{94}{Superposition of coherent states at short distances}{equation.6.75}{}}
\newlabel{0order_delta}{{6.76}{94}{Superposition of coherent states at short distances}{equation.6.76}{}}
\@writefile{toc}{\contentsline {subsection}{\numberline {6.5}Semiclassical expansion of the fields}{95}{subsection.6.5}\protected@file@percent }
\newlabel{semiclassical_expansion_field_section}{{6.5}{95}{Semiclassical expansion of the fields}{subsection.6.5}{}}
\newlabel{field_braket}{{6.97}{96}{Semiclassical expansion of the fields}{equation.6.97}{}}
\newlabel{energy_power_series}{{6.108}{96}{Semiclassical expansion of the fields}{equation.6.108}{}}
\newlabel{e_1_ugual_vsol}{{6.115}{97}{Semiclassical expansion of the fields}{equation.6.115}{}}
\newlabel{definition_en}{{6.116}{97}{Semiclassical expansion of the fields}{equation.6.116}{}}
\@writefile{toc}{\contentsline {subsection}{\numberline {6.6}Symmetry-breaking corrections to the energy}{97}{subsection.6.6}\protected@file@percent }
\newlabel{semiclassical_corrections_energy_section}{{6.6}{97}{Symmetry-breaking corrections to the energy}{subsection.6.6}{}}
\newlabel{sb_ansatz}{{6.117}{97}{Symmetry-breaking corrections to the energy}{equation.6.117}{}}
\newlabel{sb_exact_eigenstate}{{6.125}{98}{Symmetry-breaking corrections to the energy}{equation.6.125}{}}
\newlabel{semiclassical_expression_norm}{{6.129}{98}{Symmetry-breaking corrections to the energy}{equation.6.129}{}}
\newlabel{expansion_norm_sb_state}{{6.130}{98}{Symmetry-breaking corrections to the energy}{equation.6.130}{}}
\newlabel{i0}{{6.136}{98}{Symmetry-breaking corrections to the energy}{equation.6.136}{}}
\newlabel{semiclassical_energy_expansion_intermediate_step}{{6.146}{99}{Symmetry-breaking corrections to the energy}{equation.6.146}{}}
\newlabel{final_expression_energy_correction}{{6.150}{99}{Symmetry-breaking corrections to the energy}{equation.6.150}{}}
\citation{Pustilnik2015}
\newlabel{final_expression_numerical}{{6.158}{100}{Symmetry-breaking corrections to the energy}{equation.6.158}{}}
\@writefile{toc}{\contentsline {subsection}{\numberline {6.7}Semiclassical correction of the two points correlator}{100}{subsection.6.7}\protected@file@percent }
\newlabel{semiclassical_2point_section}{{6.7}{100}{Semiclassical correction of the two points correlator}{subsection.6.7}{}}
\newlabel{2point_correlator_correction_formula}{{6.165}{101}{Semiclassical correction of the two points correlator}{equation.6.165}{}}
\@writefile{toc}{\contentsline {subsection}{\numberline {6.8}Spreading of a coherent state}{102}{subsection.6.8}\protected@file@percent }
\newlabel{spreading_coherent_state_section}{{6.8}{102}{Spreading of a coherent state}{subsection.6.8}{}}
\newlabel{evolution_fourier_components}{{6.176}{102}{Spreading of a coherent state}{equation.6.176}{}}
\newlabel{phase_corrected_overlap}{{6.180}{103}{Spreading of a coherent state}{equation.6.180}{}}
\newlabel{buffe_ft_da_calcolare}{{6.183}{103}{Spreading of a coherent state}{equation.6.183}{}}
\newlabel{Fn_expression}{{6.190}{103}{Spreading of a coherent state}{equation.6.190}{}}
\newlabel{o_e_r}{{6.195}{104}{Spreading of a coherent state}{equation.6.195}{}}
\newlabel{expression_fk_generic_e}{{6.197}{104}{Spreading of a coherent state}{equation.6.197}{}}
\newlabel{expression_0_1_terms}{{6.200}{104}{Spreading of a coherent state}{equation.6.200}{}}
\newlabel{power_series_semiclassical}{{6.201}{104}{Spreading of a coherent state}{equation.6.201}{}}
\newlabel{small_momenta_approximation}{{6.202}{104}{Spreading of a coherent state}{equation.6.202}{}}
\newlabel{expansion_semiclassical_quadratic}{{6.204}{104}{Spreading of a coherent state}{equation.6.204}{}}
\newlabel{free_schrodinger}{{6.206}{105}{Spreading of a coherent state}{equation.6.206}{}}
\newlabel{broadenind_guassian_packet_schrodinger}{{6.208}{105}{Spreading of a coherent state}{equation.6.208}{}}
\newlabel{broadening_time}{{6.210}{105}{Spreading of a coherent state}{equation.6.210}{}}
\newlabel{prediction_depletion}{{6.213}{105}{Spreading of a coherent state}{equation.6.213}{}}
\newlabel{depletion_small_k}{{6.1a}{106}{For small momenta the depletion of the real part is $\propto \exp \left (-k^2\right )$. Different times in the evolution correspond to different colors. This gaussian behavior predicted by the semiclassical expansion is valid only for small times and small momenta \eqref {small_momenta_approximation}. The evolution of the imaginary part is not captured by the expansion \eqref {expression_0_1_terms}, and a higher order expansion is needed.\relax }{figure.caption.29}{}}
\newlabel{sub@depletion_small_k}{{a}{106}{For small momenta the depletion of the real part is $\propto \exp \left (-k^2\right )$. Different times in the evolution correspond to different colors. This gaussian behavior predicted by the semiclassical expansion is valid only for small times and small momenta \eqref {small_momenta_approximation}. The evolution of the imaginary part is not captured by the expansion \eqref {expression_0_1_terms}, and a higher order expansion is needed.\relax }{figure.caption.29}{}}
\newlabel{depletion_log_log}{{6.1b}{106}{The prediction $\propto \exp \left (-k^2\right )$ (see Eq. \ref {prediction_depletion}) for the depletion is checked in log-log scale. Different times in the evolution correspond to different colors. The blue line serves as a guide for the eye and corresponds to a depletion of $\exp (-0.01k^2)$.\relax }{figure.caption.29}{}}
\newlabel{sub@depletion_log_log}{{b}{106}{The prediction $\propto \exp \left (-k^2\right )$ (see Eq. \ref {prediction_depletion}) for the depletion is checked in log-log scale. Different times in the evolution correspond to different colors. The blue line serves as a guide for the eye and corresponds to a depletion of $\exp (-0.01k^2)$.\relax }{figure.caption.29}{}}
\newlabel{time_fitting_depletion}{{6.1c}{106}{By fitting the exponential depletion in Figure \ref {depletion_small_k}, one can find the broadening of the gaussian depletion for different times (black crosses). We find a power law behavior for the gaussian broadening $\Sigma (t) \propto t^{2.27}$ (grey dashed line).\relax }{figure.caption.29}{}}
\newlabel{sub@time_fitting_depletion}{{c}{106}{By fitting the exponential depletion in Figure \ref {depletion_small_k}, one can find the broadening of the gaussian depletion for different times (black crosses). We find a power law behavior for the gaussian broadening $\Sigma (t) \propto t^{2.27}$ (grey dashed line).\relax }{figure.caption.29}{}}
\@writefile{lof}{\contentsline {figure}{\numberline {6.1}{\ignorespaces Preliminary numerical study for the depletion of the ratio $\mathinner {\langle {\rho _k}\rangle }_q(t)/\mathinner {\langle {\rho _k}\rangle }_c(t)$ during the time evolution and comparison with the analytical prediction \textup  {\hbox {\mathsurround \z@ \normalfont  (\ignorespaces \ref  {prediction_depletion}\unskip \@@italiccorr )}}. The soliton coherent state has semiclassical parameter $\alpha ^2m = 2.25$.\relax }}{106}{figure.caption.29}\protected@file@percent }
\@setckpt{sections/semiclassical}{
\setcounter{page}{107}
\setcounter{equation}{214}
\setcounter{enumi}{0}
\setcounter{enumii}{0}
\setcounter{enumiii}{0}
\setcounter{enumiv}{0}
\setcounter{footnote}{2}
\setcounter{mpfootnote}{0}
\setcounter{part}{0}
\setcounter{section}{6}
\setcounter{subsection}{8}
\setcounter{subsubsection}{0}
\setcounter{paragraph}{0}
\setcounter{subparagraph}{0}
\setcounter{figure}{1}
\setcounter{table}{0}
\setcounter{parentequation}{0}
\setcounter{NAT@ctr}{0}
\setcounter{Item}{0}
\setcounter{Hfootnote}{2}
\setcounter{bookmark@seq@number}{57}
\setcounter{float@type}{4}
\setcounter{cp@cntr}{0}
\setcounter{caption@flags}{0}
\setcounter{continuedfloat}{0}
\setcounter{subfigure}{3}
\setcounter{subtable}{0}
\setcounter{section@level}{2}
}
