\relax 
\providecommand\hyper@newdestlabel[2]{}
\providecommand\babel@aux[2]{}
\@nameuse{bbl@beforestart}
\providecommand\HyperFirstAtBeginDocument{\AtBeginDocument}
\HyperFirstAtBeginDocument{\ifx\hyper@anchor\@undefined
\global\let\oldcontentsline\contentsline
\gdef\contentsline#1#2#3#4{\oldcontentsline{#1}{#2}{#3}}
\global\let\oldnewlabel\newlabel
\gdef\newlabel#1#2{\newlabelxx{#1}#2}
\gdef\newlabelxx#1#2#3#4#5#6{\oldnewlabel{#1}{{#2}{#3}}}
\AtEndDocument{\ifx\hyper@anchor\@undefined
\let\contentsline\oldcontentsline
\let\newlabel\oldnewlabel
\fi}
\fi}
\global\let\hyper@last\relax 
\gdef\HyperFirstAtBeginDocument#1{#1}
\providecommand\HyField@AuxAddToFields[1]{}
\providecommand\HyField@AuxAddToCoFields[2]{}
\bibstyle{unsrtnat}
\providecommand \oddpage@label [2]{}
\babel@aux{english}{}
\@input{sections/introduction.aux}
\@input{sections/fqhe.aux}
\@input{sections/classical.aux}
\@input{sections/one.aux}
\@input{sections/results.aux}
\@input{sections/fermionic.aux}
\@input{sections/semiclassical.aux}
\@input{sections/conclusions.aux}
\bibdata{bibliography}
\bibcite{Klitzing1980}{{1}{1980}{{Klitzing et~al.}}{{Klitzing, Dorda, and Pepper}}}
\bibcite{Tsui1982}{{2}{1982}{{Tsui et~al.}}{{Tsui, Stormer, and Gossard}}}
\bibcite{Laughlin1983}{{3}{1983}{{Laughlin}}{{}}}
\bibcite{dePicciotto1997}{{4}{1997}{{de~Picciotto et~al.}}{{de~Picciotto, Reznikov, Heiblum, Umansky, Bunin, and Mahalu}}}
\bibcite{Bartolomei2020}{{5}{2020}{{Bartolomei et~al.}}{{Bartolomei, Kumar, Bisognin, Marguerite, Berroir, Bocquillon, Pla\c {c}ais, Cavanna, Dong, Gennser, Jin, and Fève}}}
\bibcite{Nakamura2020}{{6}{2020}{{Nakamura et~al.}}{{Nakamura, Liang, Gardner, and Manfra}}}
\bibcite{Kamiyama2022}{{7}{2022}{{Kamiyama et~al.}}{{Kamiyama, Matsuura, Moore, Mano, Shibata, and Yusa}}}
\bibcite{Gemelke2010}{{8}{2010}{{Gemelke et~al.}}{{Gemelke, Sarajlic, and Chu}}}
\bibcite{Lonard2023}{{9}{2023}{{Léonard et~al.}}{{Léonard, Kim, Kwan, Segura, Grusdt, Repellin, Goldman, and Greiner}}}
\bibcite{Roushan2016}{{10}{2016}{{Roushan et~al.}}{{Roushan, Neill, Megrant, Chen, Babbush, Barends, Campbell, Chen, Chiaro, Dunsworth, Fowler, Jeffrey, Kelly, Lucero, Mutus, O’Malley, Neeley, Quintana, Sank, Vainsencher, Wenner, White, Kapit, Neven, and Martinis}}}
\bibcite{Clark2020}{{11}{2020}{{Clark et~al.}}{{Clark, Schine, Baum, Jia, and Simon}}}
\bibcite{Nardin2020}{{12}{2020}{{Nardin and Carusotto}}{{}}}
\bibcite{Giuliani2005}{{13}{2005}{{Giuliani and Vignale}}{{}}}
\bibcite{Wen2012}{{14}{2012}{{Wen}}{{}}}
\@writefile{toc}{\contentsline {section}{References}{108}{section*.30}\protected@file@percent }
\bibcite{Tong2016}{{15}{2016}{{Tong}}{{}}}
\bibcite{Wen1990}{{16}{1990}{{Wen}}{{}}}
\bibcite{Stone1990}{{17}{1990}{{Stone}}{{}}}
\bibcite{Simon2021}{{18}{2021}{{Simon}}{{}}}
\bibcite{Cooper2008}{{19}{2008}{{Cooper}}{{}}}
\bibcite{Chang2003}{{20}{2003}{{Chang}}{{}}}
\bibcite{Imambekov2009}{{21}{2009}{{Imambekov and Glazman}}{{}}}
\bibcite{Fern2018}{{22}{2018}{{Fern et~al.}}{{Fern, Bondesan, and Simon}}}
\bibcite{Abanov2005}{{23}{2005}{{Abanov and Wiegmann}}{{}}}
\bibcite{Bettelheim2006}{{24}{2006}{{Bettelheim et~al.}}{{Bettelheim, Abanov, and Wiegmann}}}
\bibcite{Wiegmann2012}{{25}{2012}{{Wiegmann}}{{}}}
\bibcite{Nardin2023}{{26}{2023{}}{{Nardin and Carusotto}}{{}}}
\bibcite{Nardin2024}{{27}{2024}{{Nardin et~al.}}{{Nardin, De~Bernardis, Umucalılar, Mazza, Rizzi, and Carusotto}}}
\bibcite{Avron1995}{{28}{1995}{{Avron et~al.}}{{Avron, Seiler, and Zograf}}}
\bibcite{Girvin1986}{{29}{1986}{{Girvin et~al.}}{{Girvin, MacDonald, and Platzman}}}
\bibcite{Whitham1999}{{30}{1999}{{Whitham}}{{}}}
\bibcite{Sasaki1987}{{31}{1987}{{Sasaki and Yamanaka}}{{}}}
\bibcite{Gardner1967}{{32}{1967}{{Gardner et~al.}}{{Gardner, Greene, Kruskal, and Miura}}}
\bibcite{Gelfand1955}{{33}{1955}{{Gelfand and Levitan}}{{}}}
\bibcite{Giamarchi2003}{{34}{2003}{{Giamarchi}}{{}}}
\bibcite{Imambekov2012}{{35}{2012}{{Imambekov et~al.}}{{Imambekov, Schmidt, and Glazman}}}
\bibcite{Pustilnik2015}{{36}{2015}{{Pustilnik and Matveev}}{{}}}
\bibcite{Haldane1981}{{37}{1981}{{Haldane}}{{}}}
\bibcite{Martin2022}{{38}{2022}{{Martin and Matveev}}{{}}}
\bibcite{Castin2000}{{39}{2000}{{Castin and Herzog}}{{}}}
\bibcite{NardinFermions}{{40}{2023{}}{{Nardin and Carusotto}}{{}}}
\bibcite{Huang2006}{{41}{2006}{{Huang et~al.}}{{Huang, Deng, Yan, and Hu}}}
\bibcite{Dvali2015}{{42}{2015}{{Dvali et~al.}}{{Dvali, Gomez, Gruending, and Rug}}}
\@input{sections/ringraziamenti.aux}
\gdef \@abspage@last{111}
